{
  "EDITOR_STATE": {
    "allProjectFiles": {
      "3cf5fd40-3f06-4753-95d8-c3b6e00848fc": {
        "id": "3cf5fd40-3f06-4753-95d8-c3b6e00848fc",
        "parent": null,
        "name": "seoulrds2",
        "type": "DIRECTORY",
        "isDirectory": true,
        "children": [
          "617ba944-31eb-4f38-81f8-292c2bffff74"
        ],
        "isRemovable": false,
        "filePath": "seoulrds2"
      },
      "617ba944-31eb-4f38-81f8-292c2bffff74": {
        "id": "617ba944-31eb-4f38-81f8-292c2bffff74",
        "parent": "3cf5fd40-3f06-4753-95d8-c3b6e00848fc",
        "name": "lambda.js",
        "type": "JS_LAMBDA",
        "isDirectory": false,
        "children": [],
        "isRemovable": true,
        "filePath": "seoulrds2/lambda.js",
        "code": "exports.handler = function(event, context, callback) {\n    \n    callback(null, {\"message\": \"Successfully executed\"});\n}",
        "config": {
          "runtime": "nodejs8.10",
          "handler": "handler",
          "timeout": 60,
          "memory": 128,
          "layers": []
        },
        "triggers": []
      }
    },
    "deletedFiles": [],
    "rootNode": "3cf5fd40-3f06-4753-95d8-c3b6e00848fc",
    "openFiles": [
      "617ba944-31eb-4f38-81f8-292c2bffff74"
    ],
    "currentFileId": "617ba944-31eb-4f38-81f8-292c2bffff74",
    "resources": {},
    "customTemplate": {
      "dialect": null,
      "definitions": {}
    },
    "envVariables": [
      {
        "lambdaId": "all",
        "varKey": "SIGMA_AWS_ACC_ID",
        "varValue": null,
        "shouldPersist": false,
        "displayOnly": false,
        "editable": false
      }
    ],
    "packageJSON": {
      "dependencies": {}
    }
  },
  "PROJECT_META": {
    "projectName": "seoulrds2",
    "projectDescription": "",
    "projectVersion": "1.0.0",
    "projectRegion": "ap-northeast-2",
    "platform": "AWS",
    "platformRegions": {},
    "lastSave": 1562307573632
  },
  "VCS_STATE": {
    "provider": "BitBucket",
    "repo": {
      "name": "seoulrds2",
      "url": "https://bitbucket.org/KumudikaR/seoulrds2"
    }
  }
}